<?xml version="1.0" standalone="no"?>
<!DOCTYPE svg PUBLIC "-//W3C//DTD SVG 20010904//EN"
 "http://www.w3.org/TR/2001/REC-SVG-20010904/DTD/svg10.dtd">
<svg version="1.0" xmlns="http://www.w3.org/2000/svg"
 width="384.000000pt" height="384.000000pt" viewBox="0 0 384.000000 384.000000"
 preserveAspectRatio="xMidYMid meet">
<metadata>
Created by potrace 1.10, written by Peter Selinger 2001-2011
</metadata>
<g transform="translate(0.000000,384.000000) scale(0.100000,-0.100000)"
fill="#b0b0b0" stroke="none">
<path d="M1677 3524 c-4 -4 -7 -31 -7 -60 l0 -53 -57 -3 -58 -3 -3 -57 -3 -57
-57 -3 -57 -3 -3 -117 -3 -117 -57 -3 -57 -3 -3 -177 -2 -177 -58 -3 -57 -3
-5 -55 -5 -55 -57 -3 -57 -3 -3 58 -3 58 -115 5 -115 5 -5 55 -5 55 -115 0
-115 0 0 -355 0 -355 57 -3 57 -3 3 -57 3 -57 57 -3 57 -3 3 -57 3 -57 57 -3
57 -3 3 -57 3 -57 57 -3 57 -3 3 -57 3 -57 57 -3 57 -3 3 -57 3 -57 115 -5
115 -5 0 -55 0 -55 -55 -5 -55 -5 -3 -57 -3 -57 -57 -3 -57 -3 0 -115 0 -115
55 -5 55 -5 0 -55 0 -55 -115 -5 -115 -5 -3 -57 -3 -57 -57 -3 -57 -3 0 -175
0 -175 115 -5 115 -5 5 -115 5 -115 175 0 175 0 3 57 3 57 57 3 57 3 3 117 3
117 57 3 57 3 5 55 5 55 115 5 115 5 5 55 5 55 355 5 355 5 3 57 3 57 57 3 57
3 3 57 3 57 57 3 57 3 0 175 0 175 -57 3 -58 3 0 119 0 119 58 3 57 3 3 57 3
57 57 3 57 3 0 55 0 55 -57 3 -57 3 -3 57 -3 57 -55 0 -55 0 0 -55 0 -55 58
-3 57 -3 0 -59 0 -59 -57 -3 -58 -3 -3 -57 -3 -57 -57 -3 -57 -3 -3 -117 -3
-117 -117 -3 -117 -3 -3 -57 -3 -58 -419 0 -419 0 -3 58 -3 57 -55 5 -55 5 0
55 0 55 175 5 175 5 3 57 3 57 57 3 57 3 0 55 0 55 -55 0 -55 0 -3 -57 -3 -58
-359 0 -359 0 -3 58 -3 57 -57 3 -57 3 -3 57 -3 57 -57 3 -57 3 -3 57 -3 57
-57 3 -57 3 -3 57 -3 57 -58 3 -58 3 3 117 3 117 55 5 55 5 5 55 5 55 55 5 55
5 5 55 5 55 57 3 57 3 3 -58 3 -58 117 -3 117 -3 3 -57 3 -57 115 0 115 0 5
55 5 55 117 3 117 3 3 -118 3 -118 57 -3 57 -3 3 -57 3 -57 115 0 115 0 3 57
3 57 57 3 57 3 0 115 0 115 -57 3 -57 3 -3 57 -3 57 -115 0 -115 0 -3 -57 -3
-58 -59 0 -59 0 -3 58 -3 57 -115 5 -115 5 -5 55 -5 55 -57 3 -58 3 0 179 0
179 58 3 57 3 3 117 3 117 57 3 57 3 3 58 3 58 57 -3 57 -3 0 -235 0 -235 -55
-5 -55 -5 0 -55 0 -55 355 0 355 0 3 57 3 57 57 3 57 3 3 117 3 117 57 3 57 3
3 57 3 57 57 3 57 3 3 58 3 57 59 0 60 0 2 -597 3 -598 57 -3 57 -3 3 -57 3
-57 57 -3 57 -3 3 -57 3 -57 55 0 55 0 0 55 0 55 -57 3 -57 3 -3 57 -3 57 -57
3 -58 3 -2 597 -3 597 -57 3 -57 3 -3 57 -3 57 -55 0 -55 0 -3 -57 -3 -57 -57
-3 -57 -3 -3 -57 -3 -57 -57 -3 -57 -3 -3 -57 -3 -57 -57 -3 -57 -3 -3 -118
-3 -117 -237 2 -237 3 -5 295 -5 295 -111 3 c-60 1 -113 -1 -117 -4z m-249
-951 l-3 -118 -57 -3 -58 -3 0 121 0 120 60 0 61 0 -3 -117z m722 -243 l0
-120 -120 0 -120 0 0 120 0 120 120 0 120 0 0 -120z"/>
<path d="M2514 2197 c-3 -8 -4 -34 -2 -58 l3 -44 58 -3 57 -3 0 -59 0 -59 -57
-3 -58 -3 -3 -57 -3 -57 -57 -3 -57 -3 0 -55 0 -55 55 0 55 0 3 57 3 57 57 3
57 3 3 57 3 57 57 3 57 3 0 55 0 55 -57 3 -57 3 -3 57 -3 57 -53 3 c-38 2 -54
-1 -58 -11z"/>
</g>
</svg>
